seg7/seg7.sim/sim_1/behav/xsim/simulate.log
Vivado Simulator 2019.2
Time resolution is 1 ps
 0  0 252

 1  1  96

 2  2 218

 3  3 242

 4  4 102

 5  5 182

 6  6 250

 7  7 224

 8  8 254

 9  9 230

10 10  59

11 11  62

12 12  26

13 13 122

14 14 158

15 15 142

$finish called at time : 80 ns : File "C:/Users/stuff/Documents/Projects/FPGA/seg7/seg7.srcs/sim_1/new/seg7_sim.v" Line 64
